products_1,products_2,match
New MSI P65 Creator 15.6'' 4K UHD Thin Laptop i7-9750H 16GB 512GB SSD RTX 2060,New MSI P65 Creator 15.6'' 4K UHD Thin Laptop i7-9750H 16GB 512GB SSD RTX 2060,1
Tree Hut Charcoal Detoxifying Body Cleanser 9 Fl. Oz. NEW w/Shea Butter + Ginger,"Apple iPhone 11 Pro Max (64GB, Midnight Green) [Carrier Locked] + Carrier Subscription [Cricket Wireless]",0
"Apple iPhone 11 Pro Max (64GB, Midnight Green) [Carrier Locked] + Carrier Subscription [Cricket Wireless]",Apple iPhone 11 Pro Max Midnight Green 64GB Renwed,0
Apple iPhone 11 Pro Max Midnight Green 64GB Model A2161,Apple iPhone 11 Pro Max Midnight Green 64GB,1
"MSI GL65 Leopard 10SFK-062 15.6"" FHD 144Hz 3ms Thin Bezel Gaming Laptop Intel Core i7-10750H RTX2070 16GB 512GB NVMe SSD Win 10","MSI GL65 Leopard 10SFK-062 15.6"" FHD 144Hz 3ms Thin Bezel Gaming Laptop Intel...",1
"MSI GL65: Core i7-10750H, RTX 2070, 15.6"" Full HD 144Hz, 16GB RAM, 512GB SSD","MSI GL65 Leopard 10SFK-062 15.6"" FHD 144Hz 3ms Thin Bezel Gaming Laptop Intel Core i7-10750H RTX2070 16GB 512GB NVMe SSD Win 10",1
"MSI GF63 Thin 9SC-066 15.6"" Gaming Laptop, Thin Bezel, Intel Core i7-9750H, NVIDIA GeForce GTX1650, 16GB, 512GB NVMe SSD","MSI GL65 Leopard 10SFK-062 15.6"" FHD 144Hz 3ms Thin Bezel Gaming Laptop Intel Core i7-10750H RTX2070 16GB 512GB NVMe SSD Win 10",0
"Tree Hut Tahitian Vanilla Bean Shea Sugar Scrub, 18oz, Ultra Hydrating and Exfoliating Scrub for Nourishing Essential Body Care",Tree Hut Tahitian Vanilla Bean Shea Sugar Scrub 18oz Ultra Hydrating and Exfo...,1
Tree Hut Shea Sugar Scrub - Lychee & Plum - 18 Oz. - NEW,"Tree Hut Tahitian Vanilla Bean Shea Sugar Scrub, 18oz, Ultra Hydrating and Exfoliating Scrub for Nourishing Essential Body Care",0
Popping Candies Kosher Badatz Israel. Free Shipping! 40 Pcs!,10 X Elite Milk Chocolate with Popping Candy (Pop Rocks) Kosher Israel Para Cow,0
NEW STAR WARS Shirt Retro Movie Classic Poster 1977 T-Shirt Vintage Shirt Top,Happy Shole Society Vintage 1977 Funny T-Shirt Probably The Worst Year Ever 1977 Vintage Style - Unisex Humor T Shirt,0
PS5 RAFFLE 500gb read desciption,PS5 Slim 500gb,0
Asus Chrome C300M Norebook PC with Power cable,ASUS Chromebook C300SA 13.3 Inch,0
Outray Vintage Retro Classic Half Frame Horn Rimmed Clear Lens Glasses,Outray Vintage Retro Classic Half Frame Horn Rimmed Clear Lens Glasses,1
Sexy Anime Lewd Ahegao Hentai Waifu Girl Vinyl Sticker Decal Gag Gift,Sexy Anime Lewd Ahegao Hentai Waifu Girl Gag Gift,1
Microsoft surface pro 7 tablet and detach' keyboard,Microsoft surface pro 6 tablet and detach' keyboard,0
Iphone 11 Pro Max Red Case Multicolered,Iphone 11 Pro Max Red,0
HP GK1100 Gaming Gear Combo Keyboard Mouse Set Led Back Light Computers Mice_VUU,HP GK1100 Gaming Gear Combo Keyboard Mouse Set Led Back Light Computers_amga,1
BTS MAP OF THE SOUL OFFICIAL LIGHT STICK SPECIAL EDITION photocard army bomb,BTS Official Lightstick Map of The Soul Special Edition (incl. One Random BTS Transparent Sticker),1
The Last of Us Part II - PlayStation 4,"The Last of Us Part II -- Special Edition (Sony PlayStation 4, 2020)",1
Chanel Python Ultimate Stitch Beige Quilted Shoulder Bag,Fawziya Soccer Ball Crystal Clutch Purses Handbags For Women Bags,0
Chanel Python Ultimate Stitch Beige Quilted Shoulder Bag for Men,Chanel Python Ultimate Stitch Beige Quilted Shoulder Bag for Women,1
Vietnam Coffee Cup 18oz from original brand,Brazil Coffe Cup 18oz from original brand,0
"Funko Pop! Avengers Endgame: I Am Iron Man Glow-in-The-Dark Deluxe Vinyl Figure, Multicolored",Funko Pop Avengers Endgame: I Am Iron Man Glow-in-The-Dark Deluxe Vinyl Figure,1
Panasonic Lumix DMC-GH5 Mirrorless Micro Four Thirds Digital Camera Body,Panasonic Lumix DCM-GF10 Mirrorless Micro Four Thirds Digital Camera Body,0
La Blanca Women's Island Goddess Wrap Underwire Push Up Bikini Swimsuit Top,La Blanca Women's Wrap Underwire Push Up Bikini Swimsuit Top,1
Samsung Galaxy Note10 SM-N970U - 256GB - Aura White (T-Mobile) (Single SIM),"Samsung Galaxy Note 9, 128GB, Lavender Purple - Fully Unlocked (Renewed)",0
Tactical Molle Pouch Handbags Belt Waist Backpack Military Fanny School bag Pack,"5.11 Tactical Rush Moab 6 Sling Pack Messenger Bag, Water-Resistant, Customizable Sling Bag, Style 56963",0
"Vdealen Speed Cube Set, Includes 2x2 3x3 Stickerless Magic Cube Puzzle","Vdealen Speed Cube Set, Includes 2x2 3x3 Stickerless Magic Cube Puzzle",1
Yugioh - Blue-Eyes Chaos MAX Dragon - MVP1-ENS04 - 1st Edition - Secret - Mint,Blue-Eyes Alternative Ultimate Dragon - TN19-EN001 - Prismatic Secret Rare - Limited Edition,0
Outdoor Camping Sleeping Blanket Quilt Office Mat Pad Mattress Bag Orange,Coleman Big Basin 15 Big and Tall Adult Sleeping Bag,0
New in Sealed Box LG G8 ThinQ G820UM1 AT&T 128GB Android Pie Unlocked Smartphone,AT&T Wireless LG G8 ThinQ - 128GB - Aurora Black - LM-G820UMA (Renewed),1
Bluetooth 5.0 Wireless Headphones TWS Earphones Mini In-Ear Pods For IOS Android,TOZO T10 Bluetooth 5.0 Wireless Earbuds with Wireless Charging Case IPX8 Waterproof TWS Stereo Headphones in Ear Built in Mic Headset Premium Sound with Deep Bass for Sport Black,0
Apple AirPods with Wired Charging Case,Apple AirPods with Wired Charging Case (2nd Generation),1
Vinfast Press Kit Paris 2018 Vietnam BMW & Pininfarina Press Kit,"Milwaukee 2773-22 M18 Force Logic 1/2"" - 2"" Press Tool Kit (6 Jaws Included)",0
"Singing Machine SMM-205 Unidirectional Dynamic Microphone with 10 Ft. Cord,Black","Singing Machine SMM-205 Unidirectional Dynamic Microphone with 10 Ft. Cord,Black",1
10 Speed Mini Vibrator Battery Powered G-Spot Vibrating Massager Sexy Toy Well,Vibrating Maxi Wanachi Waterproof Massager - Pink,0
Hao Hao Mi Tom Chua Cay (Hot Sour Shrimp Flavor Noodle) - 2.7oz [Pack of 30],UK (30 x 77g) Vietnamese Hao Hao Acecook hot sour shrimp instant noodles mi tom,1
12pcs Rainbow Kids Childrens Washable Sidewalk Chalk Plastic Tub,"Chalk City Sidewalk Chalk, 136 Pieces, Non-Toxic Jumbo Washable Outdoor Chalk, Bulk Kids Sidewalk Art Set",0
SanDisk Ultra 128GB microSDXC UHS-I card with Adapter - 100MB/s U1 A1 - SDSQUAR-128G-GN6MA,Sandisk Ultra 128GB Micro SDXC UHS-I Card with Adapter -  100MB/s U1 A1 - SDS...,1
256GB RAM - 4x NVIDIA Tesla V100 GPU Rendering Server for Solidworks,PNY NVIDIA Quadro RTX 4000 - The World First Ray Tracing GPU,0
Corsair Vengeance LPX 16GB (2x8GB) DDR4 DRAM 3000MHz C15 Desktop Memory Kit - Black (CMK16GX4M2B3000C15),Corsair Vengeance LPX 16gb 2x8GB DDR4 Dram 3000Mhz C15 Desktop Memory Kit Black,1
Roadmaster Granite Peak Men's Mountain Bike - 26-inch wheels - Black,"Roadmaster - 26 Inches Granite Peak Men's Mountain Bike, Black/Blue",1
Air Jordan 724813-600: Big Kids Future Low Gym Red/Tour Yellow Sneakers (6.5 M US Big Kid),Air Jordan Future Low BG Gym Red Tour Yellow White 724813 600 GS Kids Shoes,1
Apprentice Illusion Magician - LED6-EN007 - Super Rare - 1st Edition,LED6-EN007 Apprentice Illusion Magician 1st Edition Super Rare Card YuGiOh TCG,1
Apple iPhone 11 Pro Max - 256GB - Midnight Green (Unlocked) A2161 (CDMA + GSM),"Apple iPhone 11 Pro Max, 256GB, Midnight Green, Fully Unlocked (Renewed)",1
Apple iPhone 11 Pro 64/256/512GB Green Space Gray Silver Gold GSM Unlocked,"Apple iPhone 11 Pro Max, 256GB, Space Gray - Fully Unlocked (Renewed)",0
Apple iPhone 11 Pro - 256GB - Gold (Unlocked) A2215 (CDMA + GSM),"Apple iPhone 11 Pro Max, 256GB, Fully Unlocked - Gold (Renewed)",1
24K iPhone 11 Pro Max 512Gb Gold Plated Unlocked Brand New GSM CDMA,"Apple iPhone Xs Max, 512GB, Space Gray - Fully Unlocked (Renewed)",0
Apple iPhone 11 Pro Max - 256GB - Midnight Green (Unlocked) Used,"Apple iPhone 11 Pro Max, 256GB, Midnight Green, Fully Unlocked (Renewed)",1
Apple iPhone XS Max - 64 GB - GSM+CDMA Unlocked - Silver,"Apple iPhone X, 64GB, Silver - Fully Unlocked (Renewed)",1
iPhone XS Max GSM 512GB Space Gray UNLOCKED - Fair,"Apple Iphone XS Max, 512GB, Silver - Fully Unlocked (Renewed)",1
iPhone XS Max - 64GB - Silver (Unlocked) A1921,"Apple iPhone XS, 64GB, Silver - Fully Unlocked (Renewed)",0
Apple iPhone 7 - 128GB - Gold (Unlocked) A1778 (GSM),"Apple iPhone 7 Plus, 128GB, Gold - Fully Unlocked (Renewed)",1
Apple iPhone 7 - 32GB - Silver (Unlocked) A1778 (GSM),"Apple iPhone 7 a1778, GSM Unlocked, 32GB (Renewed)",1
Apple iPhone 7 a1778 128GB Smartphone at&T Unlocked (Renewed),Apple iPhone 7 (PRODUCT)RED - 128GB - (Unlocked) A1778 (GSM),1
Apple iPhone X - 64GB - Space Gray (AT&T) A1901 (GSM),"Apple iPhone X, 64GB, Space Gray - For AT&T / T-Mobile (Renewed)",1
ASUS ZenBook 13 Ultra Slim Laptop,Asus ZenBook 13 Ultra-Slim Laptop,1
"ASUS VivoBook 15 Thin and Light Laptop, 15.6” FHD Display","ASUS VivoBook 15 Thin and Light Laptop, 15.6” FHD Display",1
ASUS ROG Maximus XII Hero Z490 (WiFi 6) LGA 1200 (Intel 10th Gen) ATX Gaming,ASUS ROG Maximus XII Hero Z490 WiFi 6 LGA 1200 Intel 10th Gen ATX Gaming,1
"ASUS VivoBook L203MA Ultra-Thin Laptop, 11.6” HD, Intel Celeron N4000 Processor",ASUS VivoBook L203MA Ultra-Thin Laptop 11.6” HD Intel Celeron N4000 Processor,1
ROG Zephyrus G15 (2020) Ultra Slim Gaming Laptop,ROG Zephyrus G15 (2020) Ultra Slim Gaming Laptop,1
2020 ASUS VivoBook 15 15.6 Inch FHD 1080P Laptop,2020 ASUS VivoBook 15 15.6 Inch FHD 1080P Laptop,1
"ASUS ZenBook 14 Ultra Thin and Light Laptop, 4-Way NanoEdge 14” FHD, Intel Core i5-10210U, 8GB RAM, 512GB PCIe NVMe SSD, Wi-Fi 5, Windows 10 Home","ASUS ZenBook 14 Ultra Thin and Light Laptop, 4-Way NanoEdge 14” FHD",1
ASUS TUF Gaming 3 AMD Radeon RX 5600XT OC Edition Gaming Graphics Card,ASUS TUF Gaming 3 AMD Radeon RX 5600XT OC Edition Gaming Graphics Card,1
"CyberpowerPC Tracer III Slim VR GT415SVR100 15.6"" Gaming Notebook","CyberpowerPC Tracer III Slim VR GT415SVR100 15.6"" Gaming Notebook",1
"Acer Aspire 5 Slim Laptop, 15.6 inches Full HD IPS Display","Acer Aspire 5 Slim Laptop, 15.6 inches Full HD IPS Display",1
EMU Australia Women's Stinger Hi,EMU Australia Women's Stinger Hi,1
Skechers Men's Afterburn Memory-Foam Lace-up Sneaker,Skechers Men's Afterburn Memory Foam Lace-Up Sneaker,1
Skechers for Work Men's Felton Slip Resistant Relaxed-Fit Work Shoe,Skechers for Work Men's Felton Slip Resistant Relaxed-Fit Shoe,1
FitKicks Original Women's Foldable Active Lifestyle Minimalist Footwear Barefoot Yoga Sporty Water Shoes,FitKicks Original Women's Foldable Active Lifestyle Minimalist Footwear Barefoot,1
Skechers BOBS Women's Bobs Plush-Peace & Love,Skechers BOBS Women's Plush-Peace & Love,1
Skechers Men's Cessnock Food Service Shoe,Skechers Men's Cessnock Food Service Shoe,1
STQ Slip On Breathe Mesh Walking Shoes Women Fashion Sneakers Comfort Wedge Platform Loafers,Stq Slip On Breathe Mesh Walking Shoes Women Fashion Sneakers Comfort Wedge Plat,1
STQ Women's Running Shoes Breathable Air Cushion Sneakers,STQ Women's Running Shoes Breathable Air Cushion Sneakers,1
Dr. Scholl's WORK Massaging Gel Advanced Insoles (Men's 8-14),Dr. Scholl's WORK Massaging Gel Advanced Insoles (Men's 8-14),1
Merrell Men's Moab 2 Vent Hiking Shoe,Merrell Men's Moab 2 Vent Hiking Shoe,1
Brooks Mens Ghost 12 Running Shoe,Brooks Mens Ghost 12 Running Shoe,1
Skechers Women's Ghenter Srelt Work Shoe,Skechers Women's Ghenter Srelt Work Shoe,1
CROC Classic Clog Water Comfortable Slip on Shoes,Crocs Classic Clog Comfortable Slip on Casual Water Shoe,1
Graco Extend2Fit Convertible Car Seat Ride Rear Facing Longer with Extend2Fit,Graco Convertible Car Seat Ride Rear Facing Longer With Extend2Fit,1
RCA WHP141B 900MHZ Wireless Stereo Headphones,RCA WHP141B 900MHz Wireless Stereo Headphones,1
Sony MDRZX110/BLK ZX Series Stereo Headphones (Black),Sony MDRZX110/BLK ZX Series Stereo Headphones MDRZX110 MDR-ZX110 Black,1
COWIN E7 Active Noise Cancelling Headphones Bluetooth,Cowin E7 Active Noise Cancelling Wireless Bluetooth Headphones,1
Bose SoundLink Around Ear Wireless Headphones II,Bose Soundlink Around-Ear Wireless Headphones II,1
Audio-Technica ATH-M20x Professional Studio Monitor Headphones,Audio-Technica ATH-M20x Professional Studio Monitor Headphones Deluxe Bundle,1
Sony MDR7506 Professional Large Diaphragm Headphone,Sony MDR7506 Professional Large Diaphragm Headphone Black With Tracking,1
Audio-Technica ATH-M30x Professional Studio Monitor Headphones,Audio-Technica ATH-M30x Professional Studio Monitor Headphones,1
Panasonic Headphones RP-HT161-K Full-Sized Over-the-Ear Lightweight Long-Corded,Panasonic Headphones RP-HT161-K Full-Sized Over-the-Ear Lightweight Long-Corded,1
"Dudios Zeus Ace TWS Earbuds, Bluetooth 5.0 Wireless Headphones Stereo in-Ear Mini Earphone","Dudios Zeus Ace TWS Earbuds, Bluetooth 5.0 Wireless Headphones Stereo in-Ear",1
"Toiletry Bag, VAGREEZ Upgraded Hanging Travel Toiletry Organizer Kit","Toiletry Bag, VAGREEZ Hanging Travel Toiletry Organizer Kit gray",1
Hello Glow: 150+ Easy Natural Beauty Recipes for a Fresh New You,NEW - Hello Glow: 150+ Easy Natural Beauty Recipes for a Fresh New You,1
suggee Mini Makeup bag Travel Small Cosmetic Bag Beauty Case for Women,suggee Mini Makeup bag Travel Small Cosmetic Bag Beauty Case for Women,1
"Real Techniques Miracle Complexion Sponge Makeup Blender, Set of 6 Assorted Beauty Sponges",Real Techniques Mini MC Beauty Sponge (Set of 4) Latex-free Makeup Blender,1
LeapFrog Scoop & Learn Ice Cream Cart,LeapFrog Scoop and Learn Ice Cream Cart,1
"Disney Frozen Fire Spirit's Snowy Snack, Salamander Toy with Lights",Disney Frozen 2 Fire Spirit's Snowy Snack Salamander Toy with Lights,1
"Delta Children Plastic Toddler Bed, Disney/Pixar Toy Story 4","Delta Children Plastic Toddler Bed, Disney/Pixar Toy Story 4",1
Husqvarna 522771104 Kids Plastic Toy Chainsaw,Husqvarna 522771104 Kids Plastic Toy Chainsaw,1
"Crayola Color Wonder Mess Free Paintbrush Pens & Paper, Painting for Kids","Crayola Color Wonder Mess Free Paintbrush Pens and Paper, Painting for Kids",1
Kindi Kids Snack Time Friends Pre School 10 inch Doll Marsha Mello,Kindi Kids Snack Time Friends Pre School 10 inch Doll Marsha Mello,1
Ravensburger Gravitrax Starter Set Marble Run & STEM Toy For Kids Age 8 & Up,Ravensburger Gravitrax Starter Set Marble Run & STEM Toy For Kids Age 8 & Up,1
Samsung Galaxy Note 9 N960 128GB GSM Factory Unlocked Smartphone AT&T T-Mobile,MMOBIEL Earspeaker Ear Speaker Earpiece Sound Listening Assembly Compatible with Samsung Galaxy Note 9 N960 incl. Tools,0
"Samsung Galaxy A01 16GB 2GB Ram SM-A015M/DS (FACTORY UNLOCKED) 5.7"" Dual SIM","Samsung Galaxy A01 16GB/2GB RAM (SM-A015M/DS) Dual SIM, 5.7” Display, GSM Unlocked, International Version - Red",1
Samsung Galaxy S8 SM-G950 64GB T-Mobile AT&T GSM Unlocked 4G Android Smartphone,"Samsung Galaxy S8, 64GB, Arctic Silver - Fully Unlocked (Renewed)",1
"Samsung Galaxy A51 (SM-A515F/DSN) 6GB 128GB GSM 6.5"" Dual SIM UNLOCKED","Samsung Galaxy A51 (SM-A515F/DS) Dual SIM 128GB, GSM Unlocked - Prism Crush Black",1
Samsung Galaxy A10 - 32GB - Blue (Unlocked) (Dual SIM) Good Condition,Samsung Galaxy A10e 32GB A102U GSM/CDMA Unlocked Phone - Black,0
"Samsung Galaxy A51 128GB 4GB RAM SM-A515F/DS Dual Sim (FACTORY UNLOCKED) 6.5""",Samsung Galaxy A51 Factory Unlocked Cell Phone | 128GB of Storage | Long Lasting Battery | Single SIM | GSM or CDMA Compatible | US Version | Black,1
Samsung Galaxy S7 edge SM-G935 - 32GB - Black (Unlocked) Smartphone (Olympic,"Samsung Galaxy S7 Edge SM-G935F 32GB (GSM Only, No CDMA) Factory Unlocked 4G/LTE Single SIM Smartphone (Black Onyx)",1
Samsung Galaxy A51 128GB 4GB RAM SM-A515F/DS Dual Sim (FACTORY GSM UNLOCKED),"Samsung Galaxy A60 (A606Y/DS) Dual SIM 128GB/ 6GB RAM 6.3-inches, Factory Unlocked, GSM International - Seawater Blue",0
Samsung Galaxy S8 SM-G950F 64GB Unlocked Smartphone Great Condition no scratches,"Samsung Galaxy S8 G950U 64GB - Verizon + GSM Unlocked Android Smartphone, Midnight Black (Renewed)",0
NEW UNLOCKED Samsung Galaxy S8 SM-G950U 64GB BLACK G950U T-MOBILE AT&T,Samsung Galaxy S8 SM-G950UZVAATT - AT&T - Midnight Black (Renewed),0
Samsung Galaxy S9 SM-G960F - 64GB - Titanium Grey 02 unlocked,"Samsung Galaxy S9, 64GB, Midnight Black - For AT&T / T-Mobile (Renewed)",0
Samsung Galaxy S9 SM-G960 - 64GB - Midnight Black (T-Mobile) See Description,"Samsung Galaxy S9, 64GB, Midnight Black - For AT&T / T-Mobile (Renewed)",1
"Samsung Galaxy A71 128GB 6GB RAM SM-A715F/DS (FACTORY UNLOCKED) 6.7"" 64MP","Samsung Galaxy A71 (SM-A715F/DS) Dual SIM 4G LTE 128GB, GSM Factory Unlocked - International Version - No Warranty - Blue",0
"Samsung Galaxy A31 64GB 4GB RAM SM-A315G/DSL (FACTORY UNLOCKED) 6.4"" Dual Sim",Samsung Galaxy A31-128GB / 4GB - A315G/DSL Unlocked Dual Sim Phone w/Quad Camera 48MP+8MP+5MP+5MP GSM International Version (Prism Crush White),0
"Samsung Galaxy A20s 32GB 3GB RAM SM-A207M/DS 6.5"" DUAL SIM (FACTORY UNLOCKED)",Samsung Galaxy S20 5G Factory Unlocked New Android Cell Phone US Version | 128GB of Storage | Fingerprint ID and Facial Recognition | Long-Lasting Battery | US Warranty |Cosmic Gray,0
"Samsung Galaxy A11 32GB SM-A115M/DS (FACTORY UNLOCKED) 6.4"" Dual SIM","Samsung Galaxy A20s A207M/DS, 32GB/3GB RAM Dual SIM 6.5''HD+ Snapdragon 450, Factory Unlocked (International Version) - (Red)",0
New SAMSUNG Galaxy A30s 64GB/ 128GB Dual SIM Android UNLOCKED Phone 3 COLOURS,"Samsung Galaxy A30 SM-A305FDS 64GB, Dual Sim, 6.4"" FHD+ Super AMOLED Infinity-U Display, 4GB RAM, GSM Unlocked International Model, No Warranty (Black)",0
Samsung Galaxy S9 - S9 Plus + Unlocked Smartphone - Various Colour - ALL Grades,"Eaglecell - Compatible with Samsung Galaxy S9, SM-G960 - Brushed Hybrid Case w/Card Slot - CS2 Rosegold",0
Samsung Galaxy S9+ SM-G965 64GB Black Unlocked Excellent S9 International Only,Samsung Galaxy S9+ Factory Unlocked Smartphone 64GB - Midnight Black,1
Samsung Chromebook 3 11.6 Laptop Intel N3060 2.48GHz 16GB SSD 4GB RAM - NEW,"Samsung Chromebook 3, 11.6"", 4GB RAM, 16GB eMMC, Chromebook (XE500C13)",1
"New Fast Lenovo 256GB SSD 8GB RAM, Windows 10 Laptop with Microsoft Office","Acer Aspire 5 Slim Laptop, 15.6 inches Full HD IPS Display, AMD Ryzen 3 3200U, Vega 3 Graphics, 4GB DDR4, 128GB SSD, Backlit Keyboard, Windows 10 in S Mode, A515-43-R19L,Silver",0
"New Fast Lenovo 256GB SSD 8GB RAM, Windows 10 Laptop with Microsoft Office 2019","WD Blue SN550 500GB NVMe Internal SSD - Gen3 x4 PCIe 8Gb/s, M.2 2280, 3D NAND, Up to 2,400 MB/s - WDS500G2B0C",0
Intel Core i7 Laptop Max Support 16GB 512GB 1TB 1080P Win10 notebook Computer,"New Apple MacBook Air (13-inch, 8GB RAM, 512GB SSD Storage) - Gold",0
Lenovo ThinkPad T460 Laptop Notebook Intel i5-6300U 2.50 8GB RAM is 128GB SSD Top,"Lenovo Thinkpad E590 15.6"" HD Business Laptop (Intel Quad Core i5-8265U, 16GB DDR4 Memory, 512GB PCIe 3.0(x4) NVMe SSD M.2 SSD) Type-C, HDMI, Ethernet, Webcam, Windows 10 Professional",0
" Omen 17 gaming laptop 125ssd 1tbhd 16gbRam Gforcev1050TI, perfect condition","Acer Predator Helios 300 Gaming Laptop, Intel Core i7-9750H, GeForce GTX 1660 Ti, 15.6"" Full HD 144Hz Display, 3ms Response Time, 16GB DDR4, 512GB PCIe NVMe SSD, RGB Backlit Keyboard, PH315-52-710B",0
"Microsoft Surface Laptop (1st Gen) Swiss , m/i5/i7 , Windows 10 Pro/S ,13.5""","Microsoft Surface Pro 7 – 12.3"" Touch-Screen - Intel Core i5 - 8GB Memory - 256GB SSD(Latest Model) – Platinum (PUV-00001)",0
"Notebook Computer Hp EliteBook 745 g2 AMD a10 pro-7350b 14"" Win 10 Pro for VAT","HP 2019 14"" Laptop - Intel Core i3 - 8GB Memory - 128GB Solid State Drive - Ash Silver Keyboard Frame (14-CF0014DX)",0
Dell Latitude e7240 Laptop Notebook Ultrabook PC i5 2.0ghz ssd128gb 4gb Win 10,"Fast Dell Latitude E5470 HD Business Laptop Notebook PC (Intel Core i5-6300U, 8GB Ram, 256GB Solid State SSD, HDMI, Camera, WiFi) Win 10 Pro SC Card Reader (Renewed)",0
Dell Latitude e7240 Laptop Notebook Ultrabook PC i5 2.0ghz ssd128gb 4gb Win 7,"Fast Dell Latitude E5470 HD Business Laptop Notebook PC (Intel Core i5-6300U, 8GB Ram, 256GB Solid State SSD, HDMI, Camera, WiFi) Win 10 Pro SC Card Reader (Renewed)",0
Dell Latitude E7450 Laptop i5 Dual-Core 8GB 256GB SSD Win 10 Pro B v.WAA,"Dell Latitude E7470 14in Laptop, Core i5-6300U 2.4GHz, 8GB Ram, 256GB SSD, Windows 10 Pro 64bit (Renewed)",0
dell laptop inspiron 15 edition full black,"Dell Inspiron 15 7000 Series Gaming Edition 7567 15.6-Inch Full HD Screen Laptop - Intel Core i5-7300HQ, 1 TB Hybrid HDD, 8GB DDR4 Memory, NVIDIA GTX 1050 4GB Graphics, Windows 10",0
pc gamer laptop,"Asus TUF FX505DT Gaming Laptop, 15.6” 120Hz Full HD, AMD Ryzen 5 R5-3550H Processor, GeForce GTX 1650 Graphics, 8GB DDR4, 256GB PCIe SSD, Gigabit Wi-Fi 5, Windows 10 Home, FX505DT-AH51, RGB Keyboard",0
"Dell Latitude D530 Laptop Win 10 Pro 15"" 2.4GHz 4GB RAM 80GB SSD Office 2019","Dell Latitude E7450 14in HD High Performance Ultra Book Business Laptop NoteBook (Intel Dual Core i5 5300U, 8GB Ram, 256GB Solid State SSD, Camera, HDMI, WIFI) Win 10 Pro (Renewed)",0
"XPG Xenia Intel i7-9750H GTX 1660Ti 6GB, 1TB NVMe SSD, 32GB RAM, Gaming Laptop","XPG Xenia Intel i7-9750H GTX 1660Ti 6GB, 1TB NVMe SSD, 32GB RAM, Gaming Laptop (XENIA159GENI71660TI-BKCUS)",1
DTN laptop Core i7,"LG Gram Laptop - 17"" IPS WQXGA (2560 x 1600) Intel 10th Gen Core i7 1065G7 CPU, 16GB RAM, 1TB M.2 NVMe SSD (512GB x2), 17 Hour Battery, Thunderbolt 3 - 17Z90N (2020)",0
"Dell Inspiron 1300 Laptop Win 10 Pro 15.4"" 2.13GHz 2GB RAM 160GB HDD Office 2019","WD Red 2TB NAS Internal Hard Drive - 5400 RPM Class, SATA 6 Gb/s, SMR, 256MB Cache, 3.5"" - WD20EFAX",0
Dell Inspiron 15 5000 Series Touchscreen Core i7 Intel 8th Generation Laptop,"Latest_Dell Inspiron 15 5000 15.6"" FHD Display Laptop, 10th Generation Intel Core i5-1035G1 Processor, 8GB RAM, 256GB SSD, Fingerprint Reader, Wireless+Bluetooth, HDMI?Window 10",0
High performance Laptop - Toshiba Satellite P50-AST3GX1,19v 3.42A 65W PA3714U-1ACA Ac Adapter/Power Cord Supply for Toshiba Satellite C50 C55 C655 C850 C855 L655 L745 L755 P50 C855D C55D S55;Toshiba Portege Z30 Z830 Z930;Radius 11 14 15 Laptop Charger,0
Custom Build your Panasonic Toughbook CF-30 Rugged Laptop Military Non-Touch,"Panasonic Toughbook CF-31, Intel Core i5 3rd Gen, 13.1"" XGA Touchscreen, 8GB RAM, 240GB SSD, Windows 10 Pro, Wifi, Bluetooth (Renewed)",0
43inch 4K WiFi Network HD Smart LCD TV HDR Flat Screen Television HDMI USB 60HZ,TCL 43S425 / 43S423 43-Inch 4K Ultra HD Smart Roku LED TV (2018) (Renewed),0
15’’ 17’’ 19’’ 22’’ 32’’ 43’’ High Definition LCD TV Television Widescreen HDMI,USS Monitor: A Historic Ship Completes Its Final Voyage: Ed Rachal Foundation Nautical,0
15’’ 17’’ 19’’ 22’’ 32’’ 43’’ 2K 4K HD LCD TV Flat Screen Television HDMI USB,"Frank's 2000"" TV",0
"SONY 55"" Class 4K HDR LED TV - KD55X75CH-2020 Model",Sony X950H 55 Inch TV: 4K Ultra HD Smart LED TV with HDR and Alexa Compatibility - 2020 Model (XBR55X950H),0
"43"" 4K 1080P HD Smart LED LCD TV Wifi Network Television HDTV Player Freeview AU",TCL 40S325 40 Inch 1080p Smart LED Roku TV (2019),0
SHARP TV LED HD Ready 32 LC-32HI3422E,Supersonic SC-1511 15.6-Inch 1080p LED Widescreen HDTV with HDMI Input (AC/DC Compatible),0
"Element ELDFW464 20"" 1080p HD LCD Television","LG 22MK430H-B 21.5-Inch Full HD Monitor with AMD FreeSync, Black",0
New T95 H616 Android 10.0 TV Box 4GB+64GB Quad Core KD HD Media Player WIFI,Android TV Box 9.0 4GB 64GB Smart TV Box Streaming Media Player RK3318 USB 3.0 Ultra HD 4K HDR Dual Band WiFi 2.4GHz 5.8GHz Bluetooth 4.1 Set Top Box with Mini Wireless Backlit Keyboard HK1 MAX 4G 64G,0
"Proscan 24"" LED TV With Built-In DVD Player",Proscan PLEDV2488A-E 24-Inch 720p 60Hz LED TV-DVD Combo,1
"Sylvania LC155SL8 15"" LCD HDTV Television *No Remote*","SAMSUNG 50-inch Class QLED Q60T Series - 4K UHD Dual LED Quantum HDR Smart TV with Alexa Built-in (QN50Q60TAFXZA, 2020 Model)",0
"TruTech Space Saving Kitchen 10"" LCD TV DVD Player AM/FM Radio Foldible Monitor",101AV Security 18.5 HD LCD Security Monitor HDMI VGA & BNC Input Build in Speaker Audio Video Display Computer PC monitor for CCTV DVR Home Office Surveillance Optional Mount,0
H96 Max Smart TV Box Android 9.0 Quad Core Media Player 4K 2.4G/5GHz WIFI,Android TV Box 10.0 4GB RAM 32GB ROM Amlogic S905X3 Smart TV Box Set Top Box with Backlit Wireless Keyboard USB 3.0 Ultra HD 4K 8K HDR Dual Band WiFi 2.4GHz 5.8GHz BT 4.1 Streaming Media Player,0
Panasonic TX-24GW334 Piano Black NEW,"Piano Book for Adult Beginners: Teach Yourself How to Play Famous Piano Songs, Read Music, Theory & Technique (Book & Streaming Video Lessons)",0
"Samsung 65"" 4K UHD HDR LED Tizen Smart TV (UN65TU7000FXZC)","SAMSUNG 55-inch Class QLED Q60T Series - 4K UHD Dual LED Quantum HDR Smart TV with Alexa Built-in (QN55Q60TAFXZA, 2020 Model)",0
H96 MAX Smart TV BOX Android 9.0 OS 4G RAM 32/64GB Quad Core 1080p 4K LED screen,CORSAIR VENGEANCELPX32GB (1x 32GB) DDR43000(PC4-24000) C16Desktop Memory -Black,0
15V Portable LCD TV Internet Video Private Vieir UN-15TD9-W Panasonic New Japan,Apocalypse TV,0
Doshisha SANSUI 16-inch LCD TV SDN16-B11,Gvirtue Universal Remote Control SN-1LC Compatible Replacement for Sony TV/3D/ LCD/LED/Smart/BRAVIA/Learn/You Tube/Netflix RM-YD005 RM-YD014 RM-YD018 RM-YD021 RM-YD024 RM-YD025,0
"Healthcare TV, 32in Thin, LED, MPEG4 J32HE843","SAMSUNG QN32Q50RAFXZA Flat 32"" QLED 4K 32Q50 Series Smart TV",0
Bang & Olufsen BeoPlay V1-40 40'' LED TV. (Black) With Left Bracket & Beo4,Bang & Olufsen Beolit 17 Wireless Bluetooth Speaker – Stone grey - BO1280373,0
Grundig 43 GUB 7060 Fire TV black NEW,Apple TV 4th Generation with Siri Remote User's Guide: Your Media Tips & Tricks Manual,0
"Nike Air Jordan 5 Retro ""TOP 3"" - Men's Size 10 (CZ1786-001) Brand New In Box",Jordan 5 Retro Top 3 - Cz1786-001 - Size 10,1
"Mens Nike Flyknit One US 10, EUR 44 Purple Fluro Yellow, Like New",Nike Mens Nike Air Huarache Drift PRM Low Top Lace Up Running Sneaker,0
Nike Air Jordan XXXIV Low EP PF 34 Heritage Print Men Basketball Shoe CZ7746-008,Nike Air Jordan Legacy 312 Low,0
Nike Air Jordan 1 Low SE Black Aurora Green Oragne Men Shoes AJ1 CK3022-013,Nike Men's Air Baseline Low Basketball Shoes,0
Nike Airmax 720 Mens Trainers Sneakers Sports Shoes Size 42,Nike Men's Air Max 720 Running Shoe,0
"Nike Air Structure Triax 91 size 9 ""Summit White""",Nike Air Max Triax 96,0
Nike Air Jordan 1 Low Knicks Black Royal Blue Orange White 553558-480 Men's 9,Women NIKE SF AIR FORCE 1 MID,0
Nike Air Max 1 Pimento 2004 EU44 UK9 US10 OG HOA QS Vintage Red Black Plus 90 95,Nike Men's Air Force 1 '07 Basketball Shoe,0
Nike tn iii black/grey,Nike Men's Football Boots,0
Nike Air Jordan 3 Varsity Royal Cement UK 10.5 US 11.5,Nike Kids Boy's Kyrie Flytrap II (Big Kid),0
Nike Air Zoom Type Black Menta UK 9.5 Brand New In Box,Nike Women's Air Zoom Pegasus 36 Running Shoes,0
Nike Air Jordan BCT Low White Midnight Navy Shoes Sneakers 429505-101 Sz 13,Nike Men’s Air Force 1 Low Sneaker,0
Nike Adapt Auto Max Green Anthracite Black (US Charger) CI5018 001 Size 10,Black Gladiator-Tracked Chassis,0
Air Vapormax Plus Men’s 8.5 Light Current Blue Navy 924453-407 Nike New,"Nike Air Vapormax Flyknit, Golden Beige/Racer Blue-club Gold, 12",0
Nike Air Max 270 Trainers Cream/Black/Light Bone AH8050 003 UK8.5/US9.5/EU43,Sled Dog School ,0
NIKE AIR JORDAN RETRO 4 Bred HIGH off white 5 travis force 1 Men Size 11.5 Shoes,"Jordan Nike Men's Air 5""International Flight Retro 136027-148 (Size: 13)",0
Men's NIKE Air Max Plus TN Premium Photo Blue Grey | size 9.5 | 815994 400 NIB,Under Armour Men's Charged Assert 8 Running Shoe,0
Nike Air Max 1 “USA” Deep Royal Blue Red White CJ9927-100 Men's Size 7.5,"Red, White & Royal Blue",0
Nike Air Presto Br Qs Men 7Us,Nike Men's Trail Running Shoes,0
Nike AO2924-007 Air Max 720 Men's Shoes Size 11.5 Men (Black),Nike Men's Track & Field Shoes,0
Portable Monitor 12.5-inch IPS Full HD 1920x1080P Ultra-Thin Display w/ Speaker,"ASUS MB169B+ 15.6"" Full HD 1920x1080 IPS USB Portable Monitor",0
"15.6"" Portable Monitor Ultra-Thin IPS HDR Gaming Screen HDMI HD 1920x1080P","Planar Helium PCT2235 Touch Screen 22"" LED LCD Full HD Resolution Monitor with Helium Stand,black",0
"LG 24MP58VQ 24"" Full HD 1920x1080 IPS Panel Monitor",LG 32MA68HY-P 32-Inch IPS Monitor with Display Port and HDMI Inputs,0
Hansung TFG29F10W 1200R Curved 21:9 Gaming Real 100Hz AMD FreeSync WFHD Free EMS,"Acer SB220Q bi 21.5 Inches Full HD (1920 x 1080) IPS Ultra-Thin Zero Frame Monitor (HDMI & VGA port),Black",0
"BRAND NEW ACER KG271 BMIIX 27"" FULL HD LED MONITOR BLACK 1920 X 1080 RESOLUTION.","Acer KG271 bmiix 27"" Full HD (1920 x 1080) TN Monitor with AMD FREESYNC Technology (2 x HDMI & VGA Port),Black",0
NIB new dell P2815Q computer screen monitor HD 4K adjustable pivot tilt,"Acer R240HY bidx 23.8-Inch IPS HDMI DVI VGA (1920 x 1080) Widescreen Monitor,Black",0
"PC monitor Dell 22"" Professional e2214h 1920x1080 Full HD LED DVI-D VGA",Dell P2214H IPS 22-Inch Screen LED-Lit Monitor Renewed,1
VIOTEK GN27DW 27Inch 144Hz Curved Gaming Monitor 1440p Samsung VA Panel FreeSync,"Sceptre 27"" Curved 144Hz Gaming LED Monitor Edge-Less AMD FreeSync DisplayPort HDMI, Machine Black 2020 (Machine Black)",0
"ASUS MB169B+ computer monitor 39.6 cm (15.6"") 1920 x 1080 pixels Full HD LED","ASUS MB169B+ 15.6"" Full HD 1920x1080 IPS USB Portable Monitor",1
NEW LISTINGNEW Samsung S24E450D 24in SE450 Series LED Monitor for Business LCD 1920x1080,"Samsung SE450 Series 24 inch FHD 1920x1080 Desktop Monitor for Business with DisplayPort, DVI, VGA, VESA mountable, 3-Year Warranty, TAA (S24E450D)",1
"HP 27er 27"" IPS LED Backlit Anti-Glare Display 1920x1080 Computer Monitor T3M88A",HP 27er 27-Inch Full HD 1080p IPS LED Monitor with Frameless Bezel and VGA & HDMI (T3M88AA),1
"NEW LISTINGAOC LED Monitor Curved 31.5"" (31.5"" Viewable) 1920 x 1080 Full HD (1080p) c32g1","AOC C32G1 32"" Curved Frameless Gaming Monitor, FHD 1920x1080, VA panel, 1ms MPRT, 144Hz, FreeSync, DisplayPort/HDMI/VGA, VESA, black",1
VIOTEK GFV24C 24Inch Ultra-Thin 144Hz Gaming Monitor 1080P FreeSync HDMI DP VESA,"LG 27GL83A-B 27 Inch Ultragear QHD IPS 1ms NVIDIA G-SYNC Compatible Gaming Monitor, Black",0
NEW LISTINGDell P2219H Black NEW,"Monitor 21.5"" LED IPS P2219H 1920 x 1080 Full HD Tempo di Risposta 5 ms",1
Portable Monitor 15.6in 4K LCD HD HDMI USB Type C Display For PC Laptop Phone,"HP VH240a 23.8-inch Full HD 1080p IPS LED Monitor with Built-in Speakers and VESA Mounting, Rotating Portrait & Landscape, Tilt, and HDMI & VGA Ports (1KL30AA) - Black",0
"AOC 24B2XH computer monitor 60.5 cm (23.8"") 1920 x 1080 pixels Full HD LED Black","Acer CB272 bmiprx 27"" Full HD (1920 x 1080) IPS Zero Frame Home Office Monitor with AMD Radeon FreeSync - 1ms VRB, 75Hz Refresh, Height Adjustable Stand with Tilt & Pivot (Display, HDMI & VGA ports)",0
"LG 29WK500-P 29"" 21:9 UltraWide Full HD IPS LED Monitor with AMD FreeSync NEW FS","LG 29"" 29WK500-P LED IPS LCD Monitor Dual HDMI UltraWide 21:9 AMD FreeSync Screen Split 2.0 - Black",1
"AOC 27"" IPS 9ms Full HD 3-Way Frameless Slim Monitor - HDMI1.4/VGA Tilt Low Blue","Asus VA27EHE Eye Care Monitor Full HD,Black,27"" Frameless",0
NEW LISTINGCurved monitor 21:9 antgamer m34g5q 34 inch 4k 1ms uhd + bill + warranty,"Sceptre Curved UltraWide 34"" 21:9 Super Creative LED Monitor 2560x1080 Frameless HDMI DisplayPort Up to 100Hz, Machine Black 2020",0
Samsung SR35 Series 21.5 Ultra-Thin Bezel Business Computer Monitor - 1920 x 10,"Samsung Business 22"" S22R350FHN 1920x1080, IPS Panel, Thin bezels, VGA/HDMI, Monitor, Black",1
